…
```r
level_comparison <- enr %>%
  filter(type == "STATE", !grade_level %in% c("TOTAL", "SPED", "PK")) %>%
  mutate(level = case_when(
    grade_level %in% c("K", "01", "02", "03", "04", "05") ~ "Elementary (K-5)",
    grade_level %in% c("06", "07", "08") ~ "Middle (6-8)",
    TRUE ~ "High School (9-12)"
  )) %>%
  group_by(end_year, level) %>%
  summarize(n_students = sum(n_students, na.rm = TRUE), .groups = "drop")

stopifnot(nrow(level_comparison) > 0)
print(level_comparison)
#> # A tibble: 30 x 3
#>    end_year level              n_students
#>       <dbl> <chr>                   <dbl>
#>  1     2016 Elementary (K-5)        81797
#>  2     2016 High School (9-12)      44468
#>  3     2016 Middle (6-8)            36729
#>  4     2017 Elementary (K-5)        81059
#>  5     2017 High School (9-12)      44509
#>  6     2017 Middle (6-8)            36885
#>  7     2018 Elementary (K-5)        79886
#>  8     2018 High School (9-12)      44830
#>  9     2018 Middle (6-8)            37260
#> 10     2019 Elementary (K-5)        78944
#> # ... 20 more rows
```
…
